%YAML 1.1
%TAG !u! tag:unity3d.com,2011:
--- !u!74 &7400000
AnimationClip:
  m_ObjectHideFlags: 0
  m_CorrespondingSourceObject: {fileID: 0}
  m_PrefabInstance: {fileID: 0}
  m_PrefabAsset: {fileID: 0}
  m_Name: Player_running
  serializedVersion: 6
  m_Legacy: 0
  m_Compressed: 0
  m_UseHighQualityCurve: 1
  m_RotationCurves: []
  m_CompressedRotationCurves: []
  m_EulerCurves: []
  m_PositionCurves: []
  m_ScaleCurves: []
  m_FloatCurves: []
  m_PPtrCurves:
  - curve:
    - time: 0
      value: {fileID: 21300000, guid: d8d6ee103023d594e839f333e3f9525b, type: 3}
    - time: 0.05
      value: {fileID: 21300000, guid: 09219f09b56211a499ad64f8955514a0, type: 3}
    - time: 0.1
      value: {fileID: 21300000, guid: ed62b8ef52a443644b70aa5f288c4866, type: 3}
    - time: 0.15
      value: {fileID: 21300000, guid: 5be59193d5a61ed46a161469c29ff171, type: 3}
    - time: 0.2
      value: {fileID: 21300000, guid: b8233f9ab664f314984b06f6b6ee691e, type: 3}
    - time: 0.25
      value: {fileID: 21300000, guid: 9949c1fafd35cd44a81551bcb2b889dc, type: 3}
    - time: 0.3
      value: {fileID: 21300000, guid: a056cd6f678c3824d804cc17f8969446, type: 3}
    - time: 0.35
      value: {fileID: 21300000, guid: 1edf29f5278ed95448f8f6760c827799, type: 3}
    attribute: m_Sprite
    path: 
    classID: 212
    script: {fileID: 0}
  m_SampleRate: 20
  m_WrapMode: 0
  m_Bounds:
    m_Center: {x: 0, y: 0, z: 0}
    m_Extent: {x: 0, y: 0, z: 0}
  m_ClipBindingConstant:
    genericBindings:
    - serializedVersion: 2
      path: 0
      attribute: 0
      script: {fileID: 0}
      typeID: 212
      customType: 23
      isPPtrCurve: 1
    pptrCurveMapping:
    - {fileID: 21300000, guid: d8d6ee103023d594e839f333e3f9525b, type: 3}
    - {fileID: 21300000, guid: 09219f09b56211a499ad64f8955514a0, type: 3}
    - {fileID: 21300000, guid: ed62b8ef52a443644b70aa5f288c4866, type: 3}
    - {fileID: 21300000, guid: 5be59193d5a61ed46a161469c29ff171, type: 3}
    - {fileID: 21300000, guid: b8233f9ab664f314984b06f6b6ee691e, type: 3}
    - {fileID: 21300000, guid: 9949c1fafd35cd44a81551bcb2b889dc, type: 3}
    - {fileID: 21300000, guid: a056cd6f678c3824d804cc17f8969446, type: 3}
    - {fileID: 21300000, guid: 1edf29f5278ed95448f8f6760c827799, type: 3}
  m_AnimationClipSettings:
    serializedVersion: 2
    m_AdditiveReferencePoseClip: {fileID: 0}
    m_AdditiveReferencePoseTime: 0
    m_StartTime: 0
    m_StopTime: 0.4
    m_OrientationOffsetY: 0
    m_Level: 0
    m_CycleOffset: 0
    m_HasAdditiveReferencePose: 0
    m_LoopTime: 1
    m_LoopBlend: 0
    m_LoopBlendOrientation: 0
    m_LoopBlendPositionY: 0
    m_LoopBlendPositionXZ: 0
    m_KeepOriginalOrientation: 0
    m_KeepOriginalPositionY: 1
    m_KeepOriginalPositionXZ: 0
    m_HeightFromFeet: 0
    m_Mirror: 0
  m_EditorCurves: []
  m_EulerEditorCurves: []
  m_HasGenericRootTransform: 0
  m_HasMotionFloatCurves: 0
  m_Events: []
