%YAML 1.1
%TAG !u! tag:unity3d.com,2011:
--- !u!74 &7400000
AnimationClip:
  m_ObjectHideFlags: 0
  m_CorrespondingSourceObject: {fileID: 0}
  m_PrefabInstance: {fileID: 0}
  m_PrefabAsset: {fileID: 0}
  m_Name: Player_jump
  serializedVersion: 6
  m_Legacy: 0
  m_Compressed: 0
  m_UseHighQualityCurve: 1
  m_RotationCurves: []
  m_CompressedRotationCurves: []
  m_EulerCurves: []
  m_PositionCurves: []
  m_ScaleCurves: []
  m_FloatCurves: []
  m_PPtrCurves:
  - curve:
    - time: 0
      value: {fileID: 21300000, guid: 1edf29f5278ed95448f8f6760c827799, type: 3}
    - time: 0.033333335
      value: {fileID: 21300000, guid: 6ecb7722b6edf154e8ba364ce4e8f408, type: 3}
    - time: 0.06666667
      value: {fileID: 21300000, guid: 09386c1e0d5e31646acf3488bdf6369e, type: 3}
    - time: 0.1
      value: {fileID: 21300000, guid: a1cd563cea2dcfd4db353ecdfa817af6, type: 3}
    - time: 0.13333334
      value: {fileID: 21300000, guid: e22ad3d2fe5631e41a88a678743bbc98, type: 3}
    - time: 0.16666667
      value: {fileID: 21300000, guid: 79dee5044d4e28b4dadd5801e131ca90, type: 3}
    - time: 0.2
      value: {fileID: 21300000, guid: a1e6bb7e4d6fc8d48a8c5daf9ca7c9da, type: 3}
    - time: 0.23333333
      value: {fileID: 21300000, guid: c1a1b96ba2916c04b8e1c51358907844, type: 3}
    - time: 0.26666668
      value: {fileID: 21300000, guid: 90d2930b2f5fc6c488d6c6da1a1c9819, type: 3}
    - time: 0.3
      value: {fileID: 21300000, guid: 62076a83076eb5f4d9bb7520d7763c11, type: 3}
    - time: 0.33333334
      value: {fileID: 21300000, guid: 7fe7cd4a3eb0d914d88294ea3e1a9fd3, type: 3}
    - time: 0.36666667
      value: {fileID: 21300000, guid: 02b7cec1f769d8842b60a7cd4cdc0e12, type: 3}
    attribute: m_Sprite
    path: 
    classID: 212
    script: {fileID: 0}
  m_SampleRate: 30
  m_WrapMode: 0
  m_Bounds:
    m_Center: {x: 0, y: 0, z: 0}
    m_Extent: {x: 0, y: 0, z: 0}
  m_ClipBindingConstant:
    genericBindings:
    - serializedVersion: 2
      path: 0
      attribute: 0
      script: {fileID: 0}
      typeID: 212
      customType: 23
      isPPtrCurve: 1
    pptrCurveMapping:
    - {fileID: 21300000, guid: 1edf29f5278ed95448f8f6760c827799, type: 3}
    - {fileID: 21300000, guid: 6ecb7722b6edf154e8ba364ce4e8f408, type: 3}
    - {fileID: 21300000, guid: 09386c1e0d5e31646acf3488bdf6369e, type: 3}
    - {fileID: 21300000, guid: a1cd563cea2dcfd4db353ecdfa817af6, type: 3}
    - {fileID: 21300000, guid: e22ad3d2fe5631e41a88a678743bbc98, type: 3}
    - {fileID: 21300000, guid: 79dee5044d4e28b4dadd5801e131ca90, type: 3}
    - {fileID: 21300000, guid: a1e6bb7e4d6fc8d48a8c5daf9ca7c9da, type: 3}
    - {fileID: 21300000, guid: c1a1b96ba2916c04b8e1c51358907844, type: 3}
    - {fileID: 21300000, guid: 90d2930b2f5fc6c488d6c6da1a1c9819, type: 3}
    - {fileID: 21300000, guid: 62076a83076eb5f4d9bb7520d7763c11, type: 3}
    - {fileID: 21300000, guid: 7fe7cd4a3eb0d914d88294ea3e1a9fd3, type: 3}
    - {fileID: 21300000, guid: 02b7cec1f769d8842b60a7cd4cdc0e12, type: 3}
  m_AnimationClipSettings:
    serializedVersion: 2
    m_AdditiveReferencePoseClip: {fileID: 0}
    m_AdditiveReferencePoseTime: 0
    m_StartTime: 0
    m_StopTime: 0.4
    m_OrientationOffsetY: 0
    m_Level: 0
    m_CycleOffset: 0
    m_HasAdditiveReferencePose: 0
    m_LoopTime: 1
    m_LoopBlend: 0
    m_LoopBlendOrientation: 0
    m_LoopBlendPositionY: 0
    m_LoopBlendPositionXZ: 0
    m_KeepOriginalOrientation: 0
    m_KeepOriginalPositionY: 1
    m_KeepOriginalPositionXZ: 0
    m_HeightFromFeet: 0
    m_Mirror: 0
  m_EditorCurves: []
  m_EulerEditorCurves: []
  m_HasGenericRootTransform: 0
  m_HasMotionFloatCurves: 0
  m_Events: []
