[api-updater (non-obsolete-error-filter)] 17-12-2021 11:37:53 : Starting C:/Program Files/Unity 2021.1.16f1/2020.3.18f1/Editor/Data/Tools/ScriptUpdater/APIUpdater.NonObsoleteApiUpdaterDetector.exe
[api-updater (non-obsolete-error-filter)] 
----------------------------------
jit/startup time      : 701.7021ms
moved types parse time: 54ms
candidates parse time : 0ms
C# parse time         : 243ms
candidates check time : 33ms
console write time    : 0ms

[api-updater (non-obsolete-error-filter)] 20-12-2021 13:31:43 : Starting C:/Program Files/Unity 2021.1.16f1/2020.3.18f1/Editor/Data/Tools/ScriptUpdater/APIUpdater.NonObsoleteApiUpdaterDetector.exe
[api-updater (non-obsolete-error-filter)] 
----------------------------------
jit/startup time      : 72.8341ms
moved types parse time: 47ms
candidates parse time : 1ms
C# parse time         : 172ms
candidates check time : 44ms
console write time    : 0ms

[api-updater (non-obsolete-error-filter)] 20-12-2021 13:31:49 : Starting C:/Program Files/Unity 2021.1.16f1/2020.3.18f1/Editor/Data/Tools/ScriptUpdater/APIUpdater.NonObsoleteApiUpdaterDetector.exe
[api-updater (non-obsolete-error-filter)] 
----------------------------------
jit/startup time      : 65.8239ms
moved types parse time: 48ms
candidates parse time : 1ms
C# parse time         : 165ms
candidates check time : 40ms
console write time    : 0ms

[api-updater (non-obsolete-error-filter)] 20-12-2021 13:32:13 : Starting C:/Program Files/Unity 2021.1.16f1/2020.3.18f1/Editor/Data/Tools/ScriptUpdater/APIUpdater.NonObsoleteApiUpdaterDetector.exe
[api-updater (non-obsolete-error-filter)] 
----------------------------------
jit/startup time      : 59.0175ms
moved types parse time: 48ms
candidates parse time : 1ms
C# parse time         : 150ms
candidates check time : 24ms
console write time    : 0ms

[api-updater (non-obsolete-error-filter)] 20-12-2021 13:33:18 : Starting C:/Program Files/Unity 2021.1.16f1/2020.3.18f1/Editor/Data/Tools/ScriptUpdater/APIUpdater.NonObsoleteApiUpdaterDetector.exe
[api-updater (non-obsolete-error-filter)] 
----------------------------------
jit/startup time      : 59.7179ms
moved types parse time: 49ms
candidates parse time : 0ms
C# parse time         : 160ms
candidates check time : 32ms
console write time    : 0ms

[api-updater (non-obsolete-error-filter)] 20-12-2021 13:34:58 : Starting C:/Program Files/Unity 2021.1.16f1/2020.3.18f1/Editor/Data/Tools/ScriptUpdater/APIUpdater.NonObsoleteApiUpdaterDetector.exe
[api-updater (non-obsolete-error-filter)] 
----------------------------------
jit/startup time      : 59.842ms
moved types parse time: 48ms
candidates parse time : 0ms
C# parse time         : 166ms
candidates check time : 26ms
console write time    : 0ms

[api-updater (non-obsolete-error-filter)] 20-12-2021 13:35:40 : Starting C:/Program Files/Unity 2021.1.16f1/2020.3.18f1/Editor/Data/Tools/ScriptUpdater/APIUpdater.NonObsoleteApiUpdaterDetector.exe
[api-updater (non-obsolete-error-filter)] 
----------------------------------
jit/startup time      : 59.474ms
moved types parse time: 51ms
candidates parse time : 0ms
C# parse time         : 166ms
candidates check time : 40ms
console write time    : 0ms

[api-updater (non-obsolete-error-filter)] 20-12-2021 13:38:28 : Starting C:/Program Files/Unity 2021.1.16f1/2020.3.18f1/Editor/Data/Tools/ScriptUpdater/APIUpdater.NonObsoleteApiUpdaterDetector.exe
[api-updater (non-obsolete-error-filter)] 
----------------------------------
jit/startup time      : 59.6174ms
moved types parse time: 47ms
candidates parse time : 1ms
C# parse time         : 178ms
candidates check time : 29ms
console write time    : 0ms

[api-updater (non-obsolete-error-filter)] 20-12-2021 13:38:35 : Starting C:/Program Files/Unity 2021.1.16f1/2020.3.18f1/Editor/Data/Tools/ScriptUpdater/APIUpdater.NonObsoleteApiUpdaterDetector.exe
[api-updater (non-obsolete-error-filter)] 
----------------------------------
jit/startup time      : 57.855ms
moved types parse time: 46ms
candidates parse time : 1ms
C# parse time         : 189ms
candidates check time : 37ms
console write time    : 2ms

[api-updater (non-obsolete-error-filter)] 20-12-2021 13:38:53 : Starting C:/Program Files/Unity 2021.1.16f1/2020.3.18f1/Editor/Data/Tools/ScriptUpdater/APIUpdater.NonObsoleteApiUpdaterDetector.exe
[api-updater (non-obsolete-error-filter)] 
----------------------------------
jit/startup time      : 59.9615ms
moved types parse time: 50ms
candidates parse time : 1ms
C# parse time         : 177ms
candidates check time : 28ms
console write time    : 0ms

[api-updater (non-obsolete-error-filter)] 20-12-2021 13:39:16 : Starting C:/Program Files/Unity 2021.1.16f1/2020.3.18f1/Editor/Data/Tools/ScriptUpdater/APIUpdater.NonObsoleteApiUpdaterDetector.exe
[api-updater (non-obsolete-error-filter)] 
----------------------------------
jit/startup time      : 59.7408ms
moved types parse time: 47ms
candidates parse time : 1ms
C# parse time         : 173ms
candidates check time : 38ms
console write time    : 0ms

[api-updater (non-obsolete-error-filter)] 20-12-2021 13:39:23 : Starting C:/Program Files/Unity 2021.1.16f1/2020.3.18f1/Editor/Data/Tools/ScriptUpdater/APIUpdater.NonObsoleteApiUpdaterDetector.exe
[api-updater (non-obsolete-error-filter)] 
----------------------------------
jit/startup time      : 65.8585ms
moved types parse time: 49ms
candidates parse time : 1ms
C# parse time         : 196ms
candidates check time : 42ms
console write time    : 0ms

[api-updater (non-obsolete-error-filter)] 20-12-2021 13:39:33 : Starting C:/Program Files/Unity 2021.1.16f1/2020.3.18f1/Editor/Data/Tools/ScriptUpdater/APIUpdater.NonObsoleteApiUpdaterDetector.exe
[api-updater (non-obsolete-error-filter)] 
----------------------------------
jit/startup time      : 56.5488ms
moved types parse time: 46ms
candidates parse time : 0ms
C# parse time         : 183ms
candidates check time : 39ms
console write time    : 0ms

[api-updater (non-obsolete-error-filter)] 20-12-2021 13:39:45 : Starting C:/Program Files/Unity 2021.1.16f1/2020.3.18f1/Editor/Data/Tools/ScriptUpdater/APIUpdater.NonObsoleteApiUpdaterDetector.exe
[api-updater (non-obsolete-error-filter)] 
----------------------------------
jit/startup time      : 60.8366ms
moved types parse time: 50ms
candidates parse time : 1ms
C# parse time         : 186ms
candidates check time : 39ms
console write time    : 0ms

[api-updater (non-obsolete-error-filter)] 20-12-2021 13:39:54 : Starting C:/Program Files/Unity 2021.1.16f1/2020.3.18f1/Editor/Data/Tools/ScriptUpdater/APIUpdater.NonObsoleteApiUpdaterDetector.exe
[api-updater (non-obsolete-error-filter)] 
----------------------------------
jit/startup time      : 58.5193ms
moved types parse time: 48ms
candidates parse time : 1ms
C# parse time         : 152ms
candidates check time : 35ms
console write time    : 0ms

[api-updater (non-obsolete-error-filter)] 20-12-2021 13:39:58 : Starting C:/Program Files/Unity 2021.1.16f1/2020.3.18f1/Editor/Data/Tools/ScriptUpdater/APIUpdater.NonObsoleteApiUpdaterDetector.exe
[api-updater (non-obsolete-error-filter)] 
----------------------------------
jit/startup time      : 58.0498ms
moved types parse time: 50ms
candidates parse time : 1ms
C# parse time         : 163ms
candidates check time : 35ms
console write time    : 0ms

[api-updater (non-obsolete-error-filter)] 20-12-2021 13:40:09 : Starting C:/Program Files/Unity 2021.1.16f1/2020.3.18f1/Editor/Data/Tools/ScriptUpdater/APIUpdater.NonObsoleteApiUpdaterDetector.exe
[api-updater (non-obsolete-error-filter)] 
----------------------------------
jit/startup time      : 60.6174ms
moved types parse time: 47ms
candidates parse time : 1ms
C# parse time         : 158ms
candidates check time : 34ms
console write time    : 0ms

[api-updater (non-obsolete-error-filter)] 20-12-2021 13:40:15 : Starting C:/Program Files/Unity 2021.1.16f1/2020.3.18f1/Editor/Data/Tools/ScriptUpdater/APIUpdater.NonObsoleteApiUpdaterDetector.exe
[api-updater (non-obsolete-error-filter)] 
----------------------------------
jit/startup time      : 60.8374ms
moved types parse time: 48ms
candidates parse time : 1ms
C# parse time         : 167ms
candidates check time : 35ms
console write time    : 0ms

[api-updater (non-obsolete-error-filter)] 20-12-2021 13:40:25 : Starting C:/Program Files/Unity 2021.1.16f1/2020.3.18f1/Editor/Data/Tools/ScriptUpdater/APIUpdater.NonObsoleteApiUpdaterDetector.exe
[api-updater (non-obsolete-error-filter)] 
----------------------------------
jit/startup time      : 61.8339ms
moved types parse time: 47ms
candidates parse time : 1ms
C# parse time         : 176ms
candidates check time : 39ms
console write time    : 0ms

[api-updater (non-obsolete-error-filter)] 20-12-2021 13:40:53 : Starting C:/Program Files/Unity 2021.1.16f1/2020.3.18f1/Editor/Data/Tools/ScriptUpdater/APIUpdater.NonObsoleteApiUpdaterDetector.exe
[api-updater (non-obsolete-error-filter)] 
----------------------------------
jit/startup time      : 56.7587ms
moved types parse time: 47ms
candidates parse time : 0ms
C# parse time         : 159ms
candidates check time : 38ms
console write time    : 0ms

[api-updater (non-obsolete-error-filter)] 20-12-2021 13:41:11 : Starting C:/Program Files/Unity 2021.1.16f1/2020.3.18f1/Editor/Data/Tools/ScriptUpdater/APIUpdater.NonObsoleteApiUpdaterDetector.exe
[api-updater (non-obsolete-error-filter)] 
----------------------------------
jit/startup time      : 60.8702ms
moved types parse time: 48ms
candidates parse time : 1ms
C# parse time         : 165ms
candidates check time : 37ms
console write time    : 0ms

[api-updater (non-obsolete-error-filter)] 20-12-2021 13:41:34 : Starting C:/Program Files/Unity 2021.1.16f1/2020.3.18f1/Editor/Data/Tools/ScriptUpdater/APIUpdater.NonObsoleteApiUpdaterDetector.exe
[api-updater (non-obsolete-error-filter)] 
----------------------------------
jit/startup time      : 60.3594ms
moved types parse time: 47ms
candidates parse time : 1ms
C# parse time         : 159ms
candidates check time : 37ms
console write time    : 0ms

[api-updater (non-obsolete-error-filter)] 20-12-2021 13:41:53 : Starting C:/Program Files/Unity 2021.1.16f1/2020.3.18f1/Editor/Data/Tools/ScriptUpdater/APIUpdater.NonObsoleteApiUpdaterDetector.exe
[api-updater (non-obsolete-error-filter)] 
----------------------------------
jit/startup time      : 59.7271ms
moved types parse time: 46ms
candidates parse time : 0ms
C# parse time         : 158ms
candidates check time : 34ms
console write time    : 0ms

[api-updater (non-obsolete-error-filter)] 20-12-2021 13:42:12 : Starting C:/Program Files/Unity 2021.1.16f1/2020.3.18f1/Editor/Data/Tools/ScriptUpdater/APIUpdater.NonObsoleteApiUpdaterDetector.exe
[api-updater (non-obsolete-error-filter)] 
----------------------------------
jit/startup time      : 58.8735ms
moved types parse time: 46ms
candidates parse time : 0ms
C# parse time         : 154ms
candidates check time : 26ms
console write time    : 0ms

[api-updater (non-obsolete-error-filter)] 20-12-2021 13:42:21 : Starting C:/Program Files/Unity 2021.1.16f1/2020.3.18f1/Editor/Data/Tools/ScriptUpdater/APIUpdater.NonObsoleteApiUpdaterDetector.exe
[api-updater (non-obsolete-error-filter)] 
----------------------------------
jit/startup time      : 59.2549ms
moved types parse time: 49ms
candidates parse time : 1ms
C# parse time         : 152ms
candidates check time : 26ms
console write time    : 0ms

[api-updater (non-obsolete-error-filter)] 20-12-2021 13:42:32 : Starting C:/Program Files/Unity 2021.1.16f1/2020.3.18f1/Editor/Data/Tools/ScriptUpdater/APIUpdater.NonObsoleteApiUpdaterDetector.exe
[api-updater (non-obsolete-error-filter)] 
----------------------------------
jit/startup time      : 58.9368ms
moved types parse time: 47ms
candidates parse time : 1ms
C# parse time         : 159ms
candidates check time : 26ms
console write time    : 0ms

[api-updater (non-obsolete-error-filter)] 20-12-2021 13:42:53 : Starting C:/Program Files/Unity 2021.1.16f1/2020.3.18f1/Editor/Data/Tools/ScriptUpdater/APIUpdater.NonObsoleteApiUpdaterDetector.exe
[api-updater (non-obsolete-error-filter)] 
----------------------------------
jit/startup time      : 65.8431ms
moved types parse time: 59ms
candidates parse time : 1ms
C# parse time         : 188ms
candidates check time : 30ms
console write time    : 0ms

[api-updater (non-obsolete-error-filter)] 20-12-2021 13:43:14 : Starting C:/Program Files/Unity 2021.1.16f1/2020.3.18f1/Editor/Data/Tools/ScriptUpdater/APIUpdater.NonObsoleteApiUpdaterDetector.exe
[api-updater (non-obsolete-error-filter)] 
----------------------------------
jit/startup time      : 62.1641ms
moved types parse time: 52ms
candidates parse time : 1ms
C# parse time         : 187ms
candidates check time : 42ms
console write time    : 0ms

[api-updater (non-obsolete-error-filter)] 05-01-2022 15:26:23 : Starting C:/Program Files/Unity 2021.1.16f1/2020.3.18f1/Editor/Data/Tools/ScriptUpdater/APIUpdater.NonObsoleteApiUpdaterDetector.exe
[api-updater (non-obsolete-error-filter)] 
----------------------------------
jit/startup time      : 102.6948ms
moved types parse time: 49ms
candidates parse time : 1ms
C# parse time         : 183ms
candidates check time : 45ms
console write time    : 0ms

[api-updater (non-obsolete-error-filter)] 05-01-2022 15:27:14 : Starting C:/Program Files/Unity 2021.1.16f1/2020.3.18f1/Editor/Data/Tools/ScriptUpdater/APIUpdater.NonObsoleteApiUpdaterDetector.exe
[api-updater (non-obsolete-error-filter)] 
----------------------------------
jit/startup time      : 58.7516ms
moved types parse time: 47ms
candidates parse time : 0ms
C# parse time         : 166ms
candidates check time : 39ms
console write time    : 0ms

[api-updater (non-obsolete-error-filter)] 05-01-2022 15:27:44 : Starting C:/Program Files/Unity 2021.1.16f1/2020.3.18f1/Editor/Data/Tools/ScriptUpdater/APIUpdater.NonObsoleteApiUpdaterDetector.exe
[api-updater (non-obsolete-error-filter)] 
----------------------------------
jit/startup time      : 58.8757ms
moved types parse time: 50ms
candidates parse time : 0ms
C# parse time         : 159ms
candidates check time : 27ms
console write time    : 2ms

[api-updater (non-obsolete-error-filter)] 05-01-2022 15:30:00 : Starting C:/Program Files/Unity 2021.1.16f1/2020.3.18f1/Editor/Data/Tools/ScriptUpdater/APIUpdater.NonObsoleteApiUpdaterDetector.exe
[api-updater (non-obsolete-error-filter)] 
----------------------------------
jit/startup time      : 65.8251ms
moved types parse time: 50ms
candidates parse time : 0ms
C# parse time         : 153ms
candidates check time : 41ms
console write time    : 0ms

[api-updater (non-obsolete-error-filter)] 05-01-2022 15:30:22 : Starting C:/Program Files/Unity 2021.1.16f1/2020.3.18f1/Editor/Data/Tools/ScriptUpdater/APIUpdater.NonObsoleteApiUpdaterDetector.exe
[api-updater (non-obsolete-error-filter)] 
----------------------------------
jit/startup time      : 59.8399ms
moved types parse time: 56ms
candidates parse time : 1ms
C# parse time         : 154ms
candidates check time : 33ms
console write time    : 0ms

[api-updater (non-obsolete-error-filter)] 05-01-2022 16:42:32 : Starting C:/Program Files/Unity 2021.1.16f1/2020.3.18f1/Editor/Data/Tools/ScriptUpdater/APIUpdater.NonObsoleteApiUpdaterDetector.exe
[api-updater (non-obsolete-error-filter)] 
----------------------------------
jit/startup time      : 65.8222ms
moved types parse time: 48ms
candidates parse time : 0ms
C# parse time         : 170ms
candidates check time : 52ms
console write time    : 0ms

